…
> 
> sponsors_long <-
+   trials %>%
+   my_expand(trial_id, CompaniesSponsor) %>%
+   rename(sponsor_company_id = `@id`, sponsor_company_name = `$`
+          ) %>% 
+   left_join(ancestor_data, by = c('sponsor_company_id' = 'cortellis_id')) %>% 
+   select(trial_id, sponsor_company_id, sponsor_company_name,
+          ancestor_permid, ancestor_permid_name,
+          ancestor_public, ancestor_ipo_date)
> 
> 
> options(tibble.width = Inf, tibble.print_min = 20)
> collaborators_long
# A tibble: 371 x 7
   trial_id collaborator_company_id                         collaborator_company_name ancestor_permid                              ancestor_permid_name ancestor_public   ancestor_ipo_date
      <int>                   <chr>                                             <chr>           <dbl>                                             <chr>           <dbl>              <dttm>
 1     4085                   14005                                      Alkermes plc      4295905472                                      Alkermes Inc               0                  NA
 2     5461                   19062                                  Pharmacopeia Inc      4295907009                        Ligand Pharmaceuticals Inc               1 1992-11-18 05:00:00
 3     6400                   17810                                    Eli Lilly & Co      4295904414                                  Eli Lilly and Co               1 1970-07-09 04:00:00
 4     9318                 1034843                               Kirin Pharma Co Ltd      5000002397                             Kirin Holdings Co Ltd               1 1949-05-16 04:00:00
 5    11283                 1071263                     Integrated Therapeutics Group      5000400153                 Integrated Therapeutics Group Inc               0                  NA
 6    11427                   21717                                       Actavis Inc      4295875158                Teva Pharmaceutical Industries Ltd               1 1951-01-01 05:00:00
 7    11655                   21113                     Long Island Jewish Med Center      5035556145                     Long Island Jewish Med Center               0                  NA
 8    11989                   19446                                  Roche Holding AG      4295890594                                  Roche Holding AG               1 2001-05-04 04:00:00
 9    12270                   26061                        Idenix Pharmaceuticals Inc      4295904886                                    Merck & Co Inc               1 1946-06-15 04:00:00
10    13410                 1073245      NIH AIDS Clinical Trials Information Service              NA                                              <NA>              NA                  NA
11    13701                   20518                     National Institutes of Health      8589934522 United States of America, of Federal (Government)               0                  NA
12    13734                   20518                     National Institutes of Health      8589934522 United States of America, of Federal (Government)               0                  NA
13    14278                   16198                           Forest Laboratories Inc      5040050523                                      Allergan plc               1 2013-10-01 04:00:00
14    16953                 1043066                         Gates Malaria Partnership      5035544166                         Gates Malaria Partnership               0                  NA
15    16953                 1051066 National Institute for Medical Research, Tanzania      5035548450           National Institute for Medical Research               0                  NA
16    18990                   14109                                         Amgen Inc      4295905537                                         Amgen Inc               1 1987-05-01 04:00:00
17    19002                   24250                               St Louis University      4296678800                            Saint Louis University               0                  NA
18    19078                   16198                           Forest Laboratories Inc      5040050523                                      Allergan plc               1 2013-10-01 04:00:00
19    19395                   21153                 Otsuka America Pharmaceutical Inc      5000073379                            Otsuka Holdings Co Ltd               1 2010-12-15 05:00:00
20    21959                 1004419                         Aspreva International Ltd      4295890653                                   Vifor Pharma AG               1 2003-02-25 05:00:00
# ... with 351 more rows
> sponsors_long
# A tibble: 1,070 x 7
   trial_id sponsor_company_id                                        sponsor_company_name ancestor_permid                  ancestor_permid_name ancestor_public   ancestor_ipo_date
      <int>              <chr>                                                       <chr>           <dbl>                                 <chr>           <dbl>              <dttm>
 1     3130              23137                                                 Novartis AG      4295890628                           Novartis AG               1 2001-05-07 04:00:00
 2     3137              28355                                         GlaxoSmithKline plc      4295895781                   GlaxoSmithKline PLC               1 1972-05-22 04:00:00
 3     3176            1009547                                                      Sanofi      4295868215                             Sanofi SA               1 2002-07-01 04:00:00
 4     3646            1020619                                                  NITROX LLC      5000334798                            Nitrox Ltd               0                  NA
 5     3708              19449                                        Hoffmann-La Roche AG      4295890594                      Roche Holding AG               1 2001-05-04 04:00:00
 6     4085              14216                                  Amylin Pharmaceuticals Inc      4295894341                       AstraZeneca PLC               1 2007-09-21 04:00:00
 7     4085              17810                                              Eli Lilly & Co      4295904414                      Eli Lilly and Co               1 1970-07-09 04:00:00
 8     4515              18607                                        Cardiome Pharma Corp      4295861998                  Cardiome Pharma Corp               1                  NA
 9     4524            1073839 Otsuka Pharmaceutical Development and Commercialization Inc      5000073379                Otsuka Holdings Co Ltd               1 2010-12-15 05:00:00
10     4594              30201                                   Critical Therapeutics Inc      4296558863               Chiesi Farmaceutici SpA               0                  NA
11     4623              24334                                  Boston Children's Hospital      4295982344            Boston Children's Hospital               0                  NA
12     4733            1005640                                          ARCA Biopharma Inc      4295906742                    ARCA Biopharma Inc               1 2000-07-21 04:00:00
13     4733              30579                                                  Nuvelo Inc      4295906742                    ARCA Biopharma Inc               1 2000-07-21 04:00:00
14     4862              21048                                  Brigham & Women's Hospital      4296615285                Harvard Medical School               0                  NA
15     5035            1037337                                         Bispebjerg Hospital      5035544333              Copenhagen Hospital Corp               0                  NA
16     5141              19058                                               MannKind Corp      4295903432                         MannKind Corp               1 2004-07-28 04:00:00
17     5461              18723                                                Accelrys Inc      4295907629                           Biovia Corp               0                  NA
18     5850              23948                       Assistance Publique Hopitaux de Paris      4296543185 Assistance Publique Hopitaux de Paris               0                  NA
19     6000              26494                                           Sanofi-Synthelabo      4295868215                             Sanofi SA               1 2002-07-01 04:00:00
20     6130            1003983                                         Bayer HealthCare AG      4295869217                              Bayer AG               1 1997-11-28 05:00:00
# ... with 1,050 more rows
…
